<svg id="Layer_1" data-name="Layer 1" xmlns="http://www.w3.org/2000/svg" viewBox="0 0 282.01 75.96">
  <defs>
    <style>
      .cls-1 {
        fill: #fff;
      }

      .cls-2 {
        fill: #bed630;
      }
    </style>
  </defs>
  <title>logo-te-salve</title>
  <g>
    <path class="cls-1" d="M22.16,86.82V16.56H4V12H45.36v4.54H27.19V86.82h-5Z" transform="translate(-3.99 -12.02)"/>
    <path class="cls-1" d="M69.73,72.13C69.63,82.76,64.51,88,53,88c-12.56,0-18.17-5.7-18.17-21.07V50.48C34.84,35,40.74,29,52.72,29,65,29,70.21,35.5,70.21,49.71v9.47H39.58V67c0,11.6,3.29,16.72,13.34,16.72,9,0,12.08-3.87,12.27-11.6h4.54ZM39.58,50.19v4.93h26V49.71c0-11.11-2.71-16.43-12.85-16.43C42.86,33.28,39.58,37.92,39.58,50.19Z" transform="translate(-3.99 -12.02)"/>
    <path class="cls-1" d="M90.8,32.12c0,5.89,3,8.31,11.4,10.53,11.89,3.09,23.1,7.83,23.1,23.29,0,14.3-7.25,22-25,22C82.87,88,76.2,78.41,76.2,66.82H89.35c0.29,5.8,3.38,9.28,11.5,9.28,7.83,0,10.82-2.8,10.82-10,0-5.89-3.38-8.6-14.11-11.5s-20.1-7.15-20.1-22C77.46,19.27,85.38,12,100.07,12c13.53,0,22.9,5.32,24.16,20.68H110.9c-0.68-6.28-4.25-8.79-10.53-8.79C93.5,23.91,90.8,26.52,90.8,32.12Z" transform="translate(-3.99 -12.02)"/>
    <path class="cls-1" d="M159.82,82.37c-3.09,3.58-8.12,5.6-14.59,5.6-9.86,0-16.72-5.8-16.72-16.53,0-11.69,6.67-19.93,22.52-19.93,2.51,0,5.7.29,8.41,0.58V47.87c0-6.67-2.8-9.57-8.5-9.57-5.9,0-9,2.51-9,9.28H130.25c0-14.3,7.15-20,20.78-20,12.37,0,20.78,5,20.78,20V86.82H160.3Zm-0.39-19.52a48.91,48.91,0,0,0-7.34-.58c-7.83,0-10.73,2.8-10.73,8.12,0,4.45,2.71,6.86,8,6.86S159.43,73.58,159.43,67V62.85Z" transform="translate(-3.99 -12.02)"/>
    <path class="cls-1" d="M197,86.56c-16.82,1.72-20.87-5-20.87-21V12.19h12.95V66.1c0,7.84,2,9.27,7.92,9V86.56Z" transform="translate(-3.99 -12.02)"/>
    <path class="cls-2" d="M242.91,12.16h14.3L221.69,86.82H201.1V47.74h15V69.62Z" transform="translate(-3.99 -12.02)"/>
    <path class="cls-1" d="M286,61.69v-12c0-15.27-7.05-22.13-21.65-22.13a28.35,28.35,0,0,0-10.6,1.8L242.33,53.31V65.17c0,16,7.05,22.81,22.13,22.81,14.88,0,20.68-6.47,21.07-18.55H273.44c-0.29,5-2.42,7.83-9.08,7.83s-9.28-3.58-9.28-10.73V61.69H286ZM255.08,50c0-8.31,2.61-11.6,9.37-11.6s9.18,3.58,9.18,11.21v2.13H255.08V50Z" transform="translate(-3.99 -12.02)"/>
    <polygon class="cls-1" points="257.86 0 253.27 10.02 261.53 10.02 270.32 0 257.86 0"/>
  </g>
</svg>
